<svg width="24" height="24" version="1.1" viewBox="0 0 24 24" xmlns="http://www.w3.org/2000/svg">
 <path d="M0 0h24v24H0V0z" fill="none"/>
 <path d="m24 12-3-3c-0.4-0.4-1-0.1-1 0.4v2h-18c-0.7 0-1 0.6-1 1s0.6 1 1 1h18v2c0 0.6 0.7 0.8 1 0.4l3-3c0.3-0.2 0.3-0.6 0.01-0.9z"/>
</svg>
