<?xml version="1.0" encoding="UTF-8" standalone="no"?>
<svg
   xmlns:dc="http://purl.org/dc/elements/1.1/"
   xmlns:cc="http://creativecommons.org/ns#"
   xmlns:rdf="http://www.w3.org/1999/02/22-rdf-syntax-ns#"
   xmlns:svg="http://www.w3.org/2000/svg"
   xmlns="http://www.w3.org/2000/svg"
   id="svg68"
   style="clip-rule:evenodd;fill-rule:evenodd;stroke-linecap:round;stroke-linejoin:round;stroke-miterlimit:2"
   xml:space="preserve"
   version="1.1"
   viewBox="0 0 300 500"
   height="500"
   width="300"><metadata
   id="metadata74"><rdf:RDF><cc:Work
       rdf:about=""><dc:format>image/svg+xml</dc:format><dc:type
         rdf:resource="http://purl.org/dc/dcmitype/StillImage" /><dc:title></dc:title></cc:Work></rdf:RDF></metadata><defs
   id="defs72" />
    
    <g
   transform="matrix(0.80807569,0,0,0.80807569,-658.2395,-587.63401)"
   id="g969">
        <g
   transform="translate(0.05)"
   id="g342">
            <g
   id="g266">
                <path
   style="fill:#ffffff;fill-rule:nonzero"
   d="m 1115.3,810.6 c -6.2,-12.9 -14.6,-24.5 -24.7,-34.6 -13.7,-13.7 -30.5,-24.2 -48.7,-30.5 -13.5,-4.7 -27.6,-7 -41.9,-7 -70.7,0 -128.2,57.5 -128.2,128.2 V 1039 c 0,1.3 0,2.5 0.1,3.7 v 0.1 c 0,1.5 0.1,3 0.2,4.4 1.6,25 10.4,48 24.3,67.1 v 0.1 c 0.2,0.3 0.4,0.6 0.6,0.8 6.6,8.9 14.4,17 23,23.9 0.5,0.4 1,0.8 1.6,1.2 18.9,14.7 42,24.1 67.2,26.3 h 0.4 c 3.6,0.3 7.1,0.5 10.7,0.5 16.9,0 33.1,-3.3 47.9,-9.3 0.2,-0.1 0.5,-0.2 0.7,-0.3 0,0 0.1,0 0.1,-0.1 46.6,-19.2 79.5,-65.1 79.5,-118.6 V 866.6 c 0.1,-19.7 -4.2,-38.5 -12.8,-56 z m 7.4,228.3 c 0,46.4 -25.9,86.8 -63.9,107.7 -4.2,2.3 -8.5,4.4 -13,6.2 -14.1,5.7 -29.6,8.8 -45.7,8.8 h -1.9 c -3.2,0 -6.4,-0.2 -9.5,-0.5 -15.6,-1.4 -30.3,-5.8 -43.6,-12.5 -2.8,-1.4 -5.5,-2.9 -8.2,-4.5 -4.6,-2.7 -8.9,-5.8 -13.1,-9.1 -3.3,-2.6 -6.5,-5.5 -9.6,-8.4 -3.6,-3.5 -7,-7.3 -10.1,-11.3 -1,-1.2 -1.9,-2.4 -2.8,-3.7 -1,-1.4 -2,-2.8 -2.9,-4.2 -4.1,-6.1 -7.7,-12.5 -10.6,-19.3 -6.1,-14 -9.7,-29.3 -10.2,-45.3 v -0.1 c -0.1,-1.2 -0.1,-2.4 -0.1,-3.6 V 866.6 c 0,-67.6 55,-122.7 122.7,-122.7 12,0 23.9,1.7 35.3,5.2 1.6,0.5 3.2,1 4.8,1.6 0.5,0.2 0.9,0.3 1.3,0.5 0.1,0 0.2,0.1 0.3,0.1 1,0.3 1.9,0.7 2.9,1.1 1,0.4 2.1,0.8 3.1,1.3 1,0.4 2.1,0.9 3.1,1.4 0.8,0.4 1.6,0.7 2.4,1.1 0.8,0.4 1.5,0.7 2.3,1.1 0.2,0.1 0.5,0.2 0.7,0.4 0.7,0.3 1.3,0.7 2,1.1 0.4,0.2 0.7,0.4 1.1,0.6 0.7,0.4 1.4,0.8 2.1,1.2 0.3,0.2 0.6,0.3 0.8,0.5 0.6,0.3 1.1,0.7 1.7,1 0.5,0.3 1,0.6 1.5,0.9 0.9,0.6 1.8,1.1 2.6,1.7 0.6,0.4 1.3,0.9 1.9,1.3 0.6,0.4 1.2,0.8 1.7,1.2 0.7,0.5 1.5,1.1 2.2,1.6 1.7,1.3 3.5,2.7 5.1,4.1 0.4,0.4 0.9,0.7 1.3,1.1 0.5,0.4 1,0.8 1.4,1.3 1.7,1.5 3.3,3.1 4.9,4.7 1,1 2.1,2.1 3.1,3.2 1.8,1.9 3.6,3.9 5.2,6 0.5,0.6 1,1.3 1.5,1.9 0.2,0.3 0.5,0.6 0.7,0.9 0.4,0.5 0.8,1 1.2,1.5 l 3,4.2 c 1.2,1.8 2.4,3.6 3.6,5.5 0.4,0.6 0.7,1.2 1,1.7 0.1,0.2 0.3,0.5 0.4,0.7 0.3,0.5 0.6,1.1 0.9,1.6 0.8,1.5 1.6,3 2.4,4.6 0.2,0.4 0.4,0.9 0.6,1.3 0.7,1.5 1.5,3.1 2.1,4.6 6.8,15.4 10.2,31.9 10.2,49 v 172.2 z"
   id="path262" />
            </g>
            <g
   id="g270">
                <path
   style="fill:#ffffff;fill-rule:nonzero"
   d="m 1128.2,1029.3 c 0,1.1 -0.7,2.1 -1.8,2.6 -0.3,0.1 -0.7,0.3 -1,0.4 -0.9,0.4 -1.9,0.8 -2.8,1.1 -25,11.1 -29.7,29.1 -35.7,51.7 -4.9,18.8 -10.5,39.7 -28.3,61.4 -1.5,1.9 -3.2,3.8 -4.9,5.6 -1.5,1.6 -3.1,3.2 -4.7,4.9 -0.1,0.1 -0.3,0.2 -0.4,0.4 0,0 -0.1,0 -0.1,0.1 -0.2,0.1 -0.4,0.2 -0.7,0.3 -0.2,0.1 -0.5,0.1 -0.7,0.1 -0.7,0 -1.4,-0.3 -2,-0.8 -0.3,-0.3 -0.5,-0.6 -0.6,-0.9 -0.4,-1 -0.2,-2.2 0.6,-3 0.2,-0.2 0.3,-0.3 0.4,-0.4 24.2,-24.2 30.4,-48 36,-69 6.3,-23.7 11.7,-44.3 41,-56.3 0.6,-0.2 1.2,-0.5 1.8,-0.7 0.3,-0.1 0.7,-0.2 1,-0.2 1.1,0 2.1,0.7 2.6,1.8 0.2,0.2 0.3,0.5 0.3,0.9 z"
   id="path268" />
            </g>
            <g
   id="g274">
                <path
   style="fill:#ffffff;fill-rule:nonzero"
   d="m 1128.2,976.7 c 0,1 -0.6,2.1 -1.6,2.5 -0.4,0.2 -0.7,0.3 -1.1,0.5 -0.9,0.4 -1.8,0.8 -2.8,1.3 -27.6,12.9 -44.8,28.2 -56.3,44.8 -0.2,0.2 -0.3,0.5 -0.5,0.7 -13,19 -18.7,39.5 -24.3,59.7 -7.9,28.7 -15.5,56 -43.5,75.4 -1.3,0.9 -2.6,1.8 -4,2.6 -1.1,0.7 -2.3,1.4 -3.5,2.1 -0.4,0.2 -0.9,0.4 -1.4,0.4 h -0.4 c -0.8,-0.1 -1.6,-0.6 -2,-1.4 -0.3,-0.5 -0.4,-1.1 -0.3,-1.6 0.1,-0.9 0.6,-1.7 1.4,-2.1 0.2,-0.1 0.5,-0.3 0.7,-0.4 31.7,-18.4 39.5,-46.6 47.7,-76.4 5.1,-18.5 10.5,-38.1 22.2,-56.8 1.3,-2 2.6,-4 4,-6 12.3,-17.4 30.7,-33.7 60.2,-47 0.5,-0.3 1.1,-0.5 1.6,-0.7 0.4,-0.2 0.7,-0.2 1.1,-0.2 1.1,0 2.1,0.6 2.5,1.6 0.2,0.2 0.3,0.6 0.3,1 z"
   id="path272" />
            </g>
            <g
   id="g278">
                <path
   style="fill:#ffffff;fill-rule:nonzero"
   d="m 1066.7,1024.3 c 0,0.5 -0.1,1 -0.3,1.4 -0.2,0.2 -0.3,0.5 -0.5,0.7 -0.4,0.5 -1.1,0.8 -1.7,0.8 -1.9,0.2 -3.8,0.4 -5.7,0.7 -44.3,6.4 -60.3,41.4 -74.4,72.4 -10.2,22.3 -19.8,43.5 -39.1,48.2 -1.5,0.4 -3,0.6 -4.6,0.8 -1.2,0.1 -2.5,0.2 -3.8,0.2 -1.5,0 -2.8,-1.2 -2.8,-2.8 0,-0.4 0.1,-0.8 0.2,-1.1 0.4,-1 1.4,-1.7 2.5,-1.7 h 0.1 c 10.7,0 18.4,-5.4 24.9,-13.7 6.5,-8.4 11.7,-19.9 17.4,-32.2 5.8,-12.6 12.1,-26.5 20.8,-38.9 1.5,-2.2 3.2,-4.4 4.9,-6.5 12.9,-15.8 30.6,-28.2 57.7,-30.8 0.4,0 0.8,-0.1 1.2,-0.1 1.7,-0.1 3.1,1.1 3.2,2.6 z"
   id="path276" />
            </g>
            <g
   id="g282">
                <path
   style="fill:#ffffff;fill-rule:nonzero"
   d="m 1022.9,923.9 c -0.3,1.5 -1.7,2.5 -3.2,2.2 -6.8,-1.2 -13.8,-1.8 -20.8,-1.8 -65.9,0 -119.7,52.7 -121.5,118.2 v 0.1 c 0,1.1 -0.1,2.2 -0.1,3.3 0,1.4 -1,2.5 -2.4,2.7 h -0.4 c -1.1,0 -2.1,-0.6 -2.5,-1.6 -0.2,-0.3 -0.3,-0.7 -0.3,-1.2 v -3.4 c 0.2,-7.8 1.1,-15.5 2.7,-22.9 0.8,-3.6 1.7,-7.2 2.8,-10.7 15.9,-52.1 64.4,-90.1 121.6,-90.1 7.3,0 14.6,0.6 21.8,1.9 1.6,0.4 2.6,1.8 2.3,3.3 z"
   id="path280" />
            </g>
            <g
   id="g286">
                <path
   style="fill:#ffffff;fill-rule:nonzero"
   d="m 1031.7,974.3 c -0.6,1.4 -2.2,2.1 -3.6,1.5 -11.9,-4.8 -24.5,-7.3 -37.4,-7.3 -54.9,0 -99.5,44.6 -99.5,99.5 0,12.4 2.2,24.4 6.6,35.8 1,2.6 2.1,5.1 3.3,7.6 0.1,0.2 0.1,0.3 0.2,0.4 0.5,1 0.3,2.3 -0.4,3.1 -0.1,0.1 -0.2,0.2 -0.4,0.3 -0.1,0.1 -0.3,0.2 -0.4,0.3 -0.4,0.2 -0.8,0.3 -1.2,0.3 -0.7,0 -1.3,-0.2 -1.8,-0.7 -0.2,-0.2 -0.5,-0.5 -0.6,-0.8 v -0.1 c -2.2,-4.4 -4,-8.9 -5.5,-13.5 -1.4,-4.2 -2.5,-8.4 -3.3,-12.8 -1.3,-6.5 -1.9,-13.1 -1.9,-19.9 0,-57.9 47.1,-105 105,-105 13.6,0 26.9,2.6 39.5,7.7 1.3,0.6 2,2.2 1.4,3.6 z"
   id="path284" />
            </g>
            <g
   id="g290">
                <path
   style="fill:#ffffff;fill-rule:nonzero"
   d="m 995.7,1013 c -0.4,1.5 -1.9,2.4 -3.3,2 -5.6,-1.4 -11.4,-2.1 -17.3,-2.1 -39.6,0 -71.8,32.2 -71.8,71.8 0,12.3 3,24 8.8,34.5 1.5,2.8 3.3,5.5 5.2,8.2 1.9,2.6 4.1,5.1 6.4,7.5 0.3,0.3 0.6,0.6 0.8,0.9 1,1 1.1,2.5 0.3,3.6 -0.1,0.1 -0.2,0.2 -0.3,0.3 -0.5,0.6 -1.2,0.8 -2,0.8 -0.3,0 -0.7,-0.1 -1,-0.2 -0.4,-0.1 -0.7,-0.3 -1,-0.6 -0.2,-0.2 -0.4,-0.4 -0.6,-0.6 -4,-4.1 -7.5,-8.5 -10.5,-13.2 -0.6,-0.9 -1.1,-1.8 -1.7,-2.8 -1.5,-2.5 -2.8,-5.1 -3.9,-7.8 -2,-4.8 -3.6,-9.7 -4.6,-14.8 -1,-5.1 -1.6,-10.3 -1.6,-15.6 0,-42.6 34.7,-77.3 77.3,-77.3 6.3,0 12.5,0.8 18.6,2.3 1.6,0.2 2.5,1.7 2.2,3.1 z"
   id="path288" />
            </g>
            <g
   id="g296">
                <path
   style="fill:#ffffff;fill-rule:nonzero"
   d="m 1006.6,1058 c -2.3,0.3 -4.5,0.7 -6.7,1.2 -37.8,7.9 -46.4,30.3 -51.1,42.6 -0.4,1.1 -0.8,2.3 -1.3,3.6 -6,18.7 -16.7,22.6 -24.5,22.6 -2,0 -3.9,-0.2 -5.7,-0.7 -1.1,-0.2 -2.1,-0.6 -3.2,-0.9 -2.3,-0.9 -4.4,-2 -6.3,-3.4 -2.8,-2.1 -5.2,-4.9 -7,-8 -1.3,-2.4 -2.2,-5 -2.7,-7.7 -0.2,-1.1 -0.3,-2.3 -0.4,-3.4 v -1 c 0,-1.1 0.6,-2.1 1.6,-2.5 0.4,-0.2 0.8,-0.3 1.2,-0.3 1.5,0 2.8,1.2 2.8,2.8 0,6.8 3.5,12.9 8.8,16.4 3.1,2.1 6.9,3.3 10.9,3.3 8.8,0 15.3,-6.3 19.3,-18.8 0.5,-1.5 0.9,-2.7 1.3,-3.9 5,-13 15.3,-39.9 61.1,-47.2 0.3,-0.1 0.6,-0.1 0.9,-0.2 1.5,-0.2 2.9,0.8 3.1,2.3 0.4,1.5 -0.6,2.9 -2.1,3.2 z"
   id="path294" />
            </g>
            <g
   id="g300">
                <path
   style="fill:#ffffff;fill-rule:nonzero"
   d="m 1115.3,810.6 c -6.2,-12.9 -14.6,-24.5 -24.7,-34.6 -13.7,-13.7 -30.5,-24.2 -48.7,-30.5 -0.8,-0.3 -1.8,-0.2 -2.5,0.4 -0.6,0.4 -1.1,0.8 -1.6,1.2 -0.9,0.7 -1.7,1.4 -2.5,2.1 -11.3,9.8 -17.9,24.2 -17.9,39.2 0,28.7 23.4,52 52.1,52 17.3,0 33.4,-8.6 43,-22.7 0.6,-0.9 1.2,-1.8 1.8,-2.8 0.3,-0.6 0.7,-1.1 1,-1.7 0.4,-0.9 0.4,-1.8 0,-2.6 z m -45.8,24.2 c -25.7,0 -46.6,-20.9 -46.6,-46.5 0,-14.6 6.9,-28.4 18.6,-37.2 0.1,0 0.2,0.1 0.3,0.1 1,0.3 1.9,0.7 2.9,1.1 1,0.4 2.1,0.8 3.1,1.3 1,0.4 2.1,0.9 3.1,1.4 0.8,0.4 1.6,0.7 2.4,1.1 0.8,0.4 1.5,0.7 2.3,1.1 0.2,0.1 0.5,0.2 0.7,0.4 0.7,0.3 1.3,0.7 2,1.1 0.4,0.2 0.7,0.4 1.1,0.6 0.7,0.4 1.4,0.8 2.1,1.2 0.3,0.2 0.6,0.3 0.8,0.5 0.6,0.3 1.1,0.7 1.7,1 0.5,0.3 1,0.6 1.5,0.9 0.9,0.6 1.8,1.1 2.6,1.7 0.6,0.4 1.3,0.9 1.9,1.3 0.6,0.4 1.2,0.8 1.7,1.2 0.7,0.5 1.5,1.1 2.2,1.6 1.7,1.3 3.5,2.7 5.1,4.1 0.4,0.4 0.9,0.7 1.3,1.1 0.5,0.4 1,0.8 1.4,1.3 1.7,1.5 3.3,3.1 4.9,4.7 1,1 2.1,2.1 3.1,3.2 1.8,1.9 3.6,3.9 5.2,6 0.5,0.6 1,1.3 1.5,1.9 0.2,0.3 0.5,0.6 0.7,0.9 0.4,0.5 0.8,1 1.2,1.5 l 3,4.2 c 1.2,1.8 2.4,3.6 3.6,5.5 0.4,0.6 0.7,1.2 1,1.7 0.1,0.2 0.3,0.5 0.4,0.7 0.3,0.5 0.6,1.1 0.9,1.6 0.8,1.5 1.6,3 2.4,4.6 -8.2,14.3 -23.5,23.1 -40.1,23.1 z"
   id="path298" />
            </g>
            <g
   id="g304">
                <path
   style="fill:#ffffff;fill-rule:nonzero"
   d="m 1072.3,851.8 v 57.3 c 0,1.5 -1.2,2.8 -2.8,2.8 -1.5,0 -2.8,-1.2 -2.8,-2.8 v -57.3 c 0,-1.5 1.2,-2.8 2.8,-2.8 1.5,0.1 2.8,1.3 2.8,2.8 z"
   id="path302" />
            </g>
            <g
   id="g308">
                <path
   style="fill:#ffffff;fill-rule:nonzero"
   d="m 1110,879.3 c -0.4,0.2 -0.7,0.2 -1.1,0.2 -1,0 -2.1,-0.6 -2.5,-1.6 l -13.6,-30.5 c -0.6,-1.4 0,-3 1.4,-3.6 1.4,-0.6 3,0 3.6,1.4 l 13.6,30.5 c 0.6,1.4 0,3 -1.4,3.6 z"
   id="path306" />
            </g>
            <g
   id="g312">
                <path
   style="fill:#ffffff;fill-rule:nonzero"
   d="m 1009,782 c -0.2,1.4 -1.4,2.4 -2.7,2.4 h -0.3 l -48.7,-5.7 -2.7,-0.3 c -1.4,-0.2 -2.4,-1.3 -2.4,-2.7 v -0.3 c 0.2,-1.5 1.6,-2.6 3.1,-2.4 l 2.2,0.3 49.3,5.7 c 1.3,0.1 2.4,1.5 2.2,3 z"
   id="path310" />
            </g>
            <g
   id="g316">
                <path
   style="fill:#ffffff;fill-rule:nonzero"
   d="m 1009.9,810.5 -31.7,10.3 c -0.3,0.1 -0.6,0.1 -0.9,0.1 -1.2,0 -2.2,-0.7 -2.6,-1.9 -0.5,-1.4 0.3,-3 1.8,-3.5 l 31.7,-10.3 c 1.5,-0.5 3,0.3 3.5,1.8 0.4,1.5 -0.3,3.1 -1.8,3.5 z"
   id="path314" />
            </g>
            <g
   id="g320">
                <path
   style="fill:#ffffff;fill-rule:nonzero"
   d="M 1024.1,832.9 984,869 l -2.5,2.2 c -0.5,0.5 -1.2,0.7 -1.8,0.7 h -0.4 c -0.6,-0.1 -1.2,-0.4 -1.7,-0.9 -0.3,-0.3 -0.5,-0.7 -0.6,-1.1 -0.3,-1 0,-2.1 0.8,-2.8 l 2.1,-1.9 40.5,-36.5 c 1.1,-1 2.9,-0.9 3.9,0.2 1,1.2 1,2.9 -0.2,4 z"
   id="path318" />
            </g>
            <g
   id="g324">
                <path
   style="fill:#ffffff;fill-rule:nonzero"
   d="m 1046.2,847.5 -13.6,30.5 c -0.5,1 -1.5,1.6 -2.5,1.6 -0.4,0 -0.8,-0.1 -1.1,-0.2 -1.4,-0.6 -2,-2.2 -1.4,-3.6 l 13.6,-30.5 c 0.6,-1.4 2.3,-2 3.6,-1.4 1.4,0.5 2,2.2 1.4,3.6 z"
   id="path322" />
            </g>
            <g
   id="g332">
                <path
   style="fill:#ffffff;fill-rule:nonzero"
   d="m 1072.3,906.7 c -0.9,-0.2 -1.8,-0.3 -2.8,-0.3 -0.9,0 -1.9,0.1 -2.8,0.3 -6.2,1.3 -10.8,6.8 -10.8,13.3 0,7.5 6.1,13.6 13.6,13.6 7.5,0 13.6,-6.1 13.6,-13.6 0,-6.6 -4.7,-12 -10.8,-13.3 z m -2.8,21.3 c -4.4,0 -8.1,-3.6 -8.1,-8.1 0,-4.4 3.6,-8.1 8.1,-8.1 4.4,0 8.1,3.6 8.1,8.1 -0.1,4.5 -3.7,8.1 -8.1,8.1 z"
   id="path330" />
            </g>
            <g
   id="g336">
                <path
   style="fill:#ffffff;fill-rule:nonzero"
   d="m 984,869 c -1.1,-1.5 -2.4,-2.8 -4,-3.8 -2,-1.3 -4.4,-2 -7,-2 -7.5,0 -13.6,6.1 -13.6,13.6 0,7.5 6.1,13.6 13.6,13.6 7.5,0 13.6,-6.1 13.6,-13.6 -0.1,-2.9 -1,-5.6 -2.6,-7.8 z m -11.1,15.9 c -4.4,0 -8.1,-3.6 -8.1,-8.1 0,-4.4 3.6,-8.1 8.1,-8.1 1.5,0 2.9,0.4 4.1,1.1 0.9,0.5 1.7,1.2 2.3,2 1.1,1.4 1.7,3.1 1.7,4.9 0,4.6 -3.6,8.2 -8.1,8.2 z"
   id="path334" />
            </g>
            <g
   id="g340">
                <path
   style="fill:#ffffff;fill-rule:nonzero"
   d="m 957.4,773.2 c -1.2,-6.3 -6.7,-11.1 -13.3,-11.1 -7.5,0 -13.6,6.1 -13.6,13.6 0,7.5 6.1,13.6 13.6,13.6 6.4,0 11.8,-4.5 13.2,-10.5 0.2,-1 0.3,-2 0.3,-3 0,-1 -0.1,-1.8 -0.2,-2.6 z M 944,783.7 c -4.4,0 -8.1,-3.6 -8.1,-8.1 0,-4.4 3.6,-8.1 8.1,-8.1 4.4,0 8.1,3.6 8.1,8.1 0,4.5 -3.6,8.1 -8.1,8.1 z"
   id="path338" />
            </g>
        </g>
        <g
   transform="matrix(1.06798,0,0,0.936347,0,-7)"
   id="text893">
            <g
   id="g52"
   transform="matrix(0.900447,0,0,0.900447,934.452,1341.4)">
                <path
   id="path40"
   style="fill:#ffffff;fill-rule:nonzero;stroke:#ffffff;stroke-width:2.76px"
   d="m -160.03,0 v -43.583 h 12.693 c 3.668,0 6.483,0.881 8.444,2.643 1.962,1.761 2.942,4.294 2.942,7.599 v 2.452 c 0,1.961 -0.535,3.632 -1.607,5.012 -1.071,1.38 -2.515,2.233 -4.331,2.56 v 0.491 c 2.288,0.217 4.14,1.171 5.557,2.86 1.416,1.689 2.125,3.822 2.125,6.401 v 2.451 c 0,3.596 -1.036,6.347 -3.106,8.254 -2.07,1.907 -5.048,2.86 -8.934,2.86 z m 2.724,-24.025 h 9.969 c 3.16,0 5.412,-0.59 6.756,-1.771 1.343,-1.18 2.015,-3.132 2.015,-5.856 v -1.525 c 0,-2.833 -0.672,-4.867 -2.015,-6.102 -1.344,-1.235 -3.596,-1.852 -6.756,-1.852 h -9.969 z m 0,21.573 h 11.059 c 3.341,0 5.729,-0.671 7.164,-2.015 1.434,-1.344 2.152,-3.578 2.152,-6.701 v -1.743 c 0,-3.087 -0.718,-5.303 -2.152,-6.647 -1.435,-1.344 -3.823,-2.015 -7.164,-2.015 h -11.059 z" />
                <path
   id="path42"
   style="fill:#ffffff;fill-rule:nonzero;stroke:#ffffff;stroke-width:2.76px"
   d="m -100.921,0 v -43.583 h 25.605 v 2.452 h -22.881 v 16.071 h 20.157 v 2.451 h -20.157 v 20.157 h 22.881 V 0 Z" />
                <path
   id="path44"
   style="fill:#ffffff;fill-rule:nonzero;stroke:#ffffff;stroke-width:2.76px"
   d="m -41.812,0 v -43.583 h 10.678 c 4.648,0 8.298,1.444 10.95,4.331 2.651,2.888 3.977,6.728 3.977,11.523 v 12.094 c 0,4.757 -1.335,8.553 -4.004,11.386 C -22.881,-1.416 -26.54,0 -31.189,0 Z m 2.724,-2.452 h 7.899 c 4.14,0 7.219,-1.216 9.234,-3.65 2.016,-2.433 3.024,-5.611 3.024,-9.533 v -12.094 c 0,-3.887 -1.008,-7.092 -3.024,-9.616 -2.015,-2.524 -5.094,-3.786 -9.234,-3.786 h -7.899 z" />
                <path
   id="path46"
   style="fill:#ffffff;fill-rule:nonzero;stroke:#ffffff;stroke-width:2.76px"
   d="m 29.555,0.545 c -4.431,0 -7.764,-1.271 -9.997,-3.814 -2.234,-2.542 -3.351,-6.483 -3.351,-11.822 v -13.183 c 0,-5.412 1.126,-9.407 3.378,-11.986 2.252,-2.578 5.593,-3.867 10.024,-3.867 4.395,0 7.709,1.289 9.942,3.867 2.234,2.579 3.351,6.574 3.351,11.986 v 13.183 c 0,5.339 -1.117,9.28 -3.351,11.822 -2.233,2.543 -5.566,3.814 -9.996,3.814 z m 0,-2.452 c 3.74,0 6.446,-1.035 8.117,-3.105 1.67,-2.07 2.506,-5.43 2.506,-10.079 v -13.183 c 0,-4.758 -0.836,-8.181 -2.506,-10.269 -1.671,-2.089 -4.377,-3.133 -8.117,-3.133 -3.741,0 -6.447,1.044 -8.118,3.133 -1.67,2.088 -2.506,5.511 -2.506,10.269 v 13.183 c 0,4.649 0.836,8.009 2.506,10.079 1.671,2.07 4.377,3.105 8.118,3.105 z" />
                <path
   id="path48"
   style="fill:#ffffff;fill-rule:nonzero;stroke:#ffffff;stroke-width:2.76px"
   d="m 79.13,-19.558 h 12.257 c 3.378,0 5.811,-0.708 7.301,-2.124 1.489,-1.417 2.233,-3.759 2.233,-7.028 v -3.16 c 0,-3.269 -0.744,-5.629 -2.233,-7.082 -1.49,-1.453 -3.923,-2.179 -7.301,-2.179 H 79.13 Z M 79.13,0 h -2.724 v -43.583 h 15.036 c 4.104,0 7.164,0.981 9.18,2.942 2.015,1.961 3.023,4.812 3.023,8.553 v 3.487 c 0,3.486 -0.872,6.201 -2.615,8.144 -1.743,1.943 -4.358,3.042 -7.845,3.296 L 104.408,0 h -3.051 L 90.189,-17.106 H 79.13 Z" />
                <path
   id="path50"
   style="fill:#ffffff;fill-rule:nonzero;stroke:#ffffff;stroke-width:2.76px"
   d="m 149.135,0 h -2.724 V -16.344 L 130.83,-43.583 h 3.105 l 13.892,24.57 13.838,-24.57 h 2.996 l -15.526,27.239 z" />
            </g>
            <g
   id="g64"
   transform="matrix(0.900447,0,0,0.900447,934.452,1431.13)">
                <path
   id="path54"
   style="fill:#ffffff;fill-rule:nonzero;stroke:#ffffff;stroke-width:2.76px"
   d="m -120.125,0.545 c -4.721,0 -8.308,-1.326 -10.759,-3.977 -2.452,-2.651 -3.678,-6.538 -3.678,-11.659 v -13.183 c 0,-5.194 1.19,-9.134 3.569,-11.822 2.379,-2.688 5.838,-4.031 10.378,-4.031 4.322,0 7.463,0.962 9.425,2.887 1.961,1.925 3.069,5.103 3.323,9.534 l -2.724,0.326 c -0.363,-4.031 -1.235,-6.755 -2.615,-8.171 -1.38,-1.417 -3.868,-2.125 -7.464,-2.125 -3.886,0 -6.719,1.062 -8.498,3.187 -1.78,2.125 -2.67,5.53 -2.67,10.215 v 13.183 c 0,4.613 0.936,7.963 2.806,10.052 1.87,2.088 4.839,3.132 8.907,3.132 3.886,0 6.628,-1.216 8.226,-3.65 1.598,-2.433 2.397,-6.574 2.397,-12.421 h -11.712 v -2.451 h 14.436 v 2.397 c 0,6.464 -1.062,11.177 -3.187,14.137 -2.124,2.96 -5.511,4.44 -10.16,4.44 z" />
                <path
   id="path56"
   style="fill:#ffffff;fill-rule:nonzero;stroke:#ffffff;stroke-width:2.76px"
   d="m -53.198,-16.071 -7.464,-23.208 -7.463,23.208 z M -48.077,0 -52.435,-13.62 H -68.942 L -73.301,0 h -2.833 l 14.601,-43.583 h 1.906 L -45.026,0 Z" />
                <path
   id="path58"
   style="fill:#ffffff;fill-rule:nonzero;stroke:#ffffff;stroke-width:2.76px"
   d="M -1.416,-10.896 -11.44,-39.115 V 0 h -2.724 v -43.583 h 3.65 l 10.568,29.854 10.569,-29.854 h 3.541 V 0 H 11.44 V -38.952 L 1.416,-10.896 Z" />
                <path
   id="path60"
   style="fill:#ffffff;fill-rule:nonzero;stroke:#ffffff;stroke-width:2.76px"
   d="m 48.35,0 v -43.583 h 25.604 v 2.452 H 51.073 V -25.06 H 71.23 v 2.451 H 51.073 V -2.452 H 73.954 V 0 Z" />
                <path
   id="path62"
   style="fill:#ffffff;fill-rule:nonzero;stroke:#ffffff;stroke-width:2.76px"
   d="m 122.14,0.327 c -3.377,0 -6.246,-0.608 -8.607,-1.825 -2.361,-1.217 -4.485,-2.987 -6.374,-5.312 l 1.907,-1.743 c 1.816,2.179 3.731,3.795 5.747,4.848 2.016,1.054 4.476,1.58 7.382,1.58 3.123,0 5.638,-0.817 7.545,-2.451 1.907,-1.635 2.86,-3.796 2.86,-6.483 0,-2.797 -0.835,-4.921 -2.506,-6.374 -1.67,-1.453 -4.558,-2.688 -8.662,-3.705 -4.54,-1.125 -7.79,-2.578 -9.751,-4.358 -1.962,-1.78 -2.942,-4.249 -2.942,-7.409 0,-3.16 1.144,-5.766 3.432,-7.818 2.288,-2.052 5.23,-3.078 8.825,-3.078 2.979,0 5.503,0.6 7.573,1.798 2.07,1.199 3.995,2.888 5.775,5.067 l -1.853,1.797 c -1.67,-2.033 -3.368,-3.577 -5.093,-4.63 -1.725,-1.053 -3.859,-1.58 -6.402,-1.58 -2.905,0 -5.239,0.744 -7,2.234 -1.761,1.489 -2.642,3.432 -2.642,5.829 0,2.687 0.808,4.712 2.424,6.074 1.616,1.362 4.458,2.551 8.526,3.568 4.576,1.163 7.863,2.67 9.861,4.522 1.997,1.852 2.996,4.54 2.996,8.063 0,3.269 -1.199,5.983 -3.596,8.144 -2.397,2.161 -5.538,3.242 -9.425,3.242 z" />
            </g>
        </g>
    </g>
</svg>
