<?xml version="1.0" encoding="UTF-8" standalone="no"?>
<svg
   xmlns:dc="http://purl.org/dc/elements/1.1/"
   xmlns:cc="http://creativecommons.org/ns#"
   xmlns:rdf="http://www.w3.org/1999/02/22-rdf-syntax-ns#"
   xmlns:svg="http://www.w3.org/2000/svg"
   xmlns="http://www.w3.org/2000/svg"
   id="svg841"
   version="1.1"
   stroke-width="9"
   fill="none"
   stroke="#000000"
   viewBox="0 0 512 512"
   stroke-miterlimit="2"
   stroke-linejoin="round"
   stroke-linecap="round"
   fill-rule="evenodd"
   clip-rule="evenodd"
   height="512"
   width="512">
  <metadata
     id="metadata847">
    <rdf:RDF>
      <cc:Work
         rdf:about="">
        <dc:format>image/svg+xml</dc:format>
        <dc:type
           rdf:resource="http://purl.org/dc/dcmitype/StillImage" />
        <dc:title></dc:title>
      </cc:Work>
    </rdf:RDF>
  </metadata>
  <defs
     id="defs845" />
  <rect
     ry="84.436226"
     y="53.295948"
     x="53.295948"
     height="405.40811"
     width="405.40811"
     id="rect1416"
     style="fill:#ffffff;fill-opacity:1;stroke:none;stroke-width:9.53174;stroke-linecap:round;stroke-linejoin:round;stroke-miterlimit:2;stroke-dasharray:none;stroke-opacity:1" />
  <g
     transform="translate(53.000001,53.500001)"
     style="fill:none;stroke:#3e3e3e;stroke-width:8;stroke-miterlimit:2;stroke-dasharray:none;stroke-opacity:1"
     id="g1414">
    <path
       d="m 89.015278,122.76826 v 159.46348 c 0,18.99745 15.543372,33.96514 33.965142,33.96514 H 282.4439"
       id="path833"
       style="fill:none;stroke:#3e3e3e;stroke-width:8;stroke-miterlimit:2;stroke-dasharray:none;stroke-opacity:1" />
    <path
       d="m 156.36989,269.56677 h 95.56295 c 11.5136,0 20.14881,-9.21089 20.14881,-20.14882 V 153.855"
       id="path835"
       style="fill:none;stroke:#3e3e3e;stroke-width:8;stroke-miterlimit:2;stroke-dasharray:none;stroke-opacity:1" />
    <path
       d="M 316.98472,282.23174 V 122.76826 c 0,-18.99745 -15.54337,-33.965142 -33.96514,-33.965142 H 123.5561"
       id="path837"
       style="fill:none;stroke:#3e3e3e;stroke-width:8;stroke-miterlimit:2;stroke-dasharray:none;stroke-opacity:1" />
    <path
       d="m 251.93284,132.55483 h -95.56295 c -11.51361,0 -20.14882,9.21089 -20.14882,20.14881 v 95.56295"
       id="path839"
       style="fill:none;stroke:#3e3e3e;stroke-width:8;stroke-miterlimit:2;stroke-dasharray:none;stroke-opacity:1" />
  </g>
</svg>
