<?xml version="1.0" encoding="UTF-8" standalone="no"?>
<svg
   xmlns:dc="http://purl.org/dc/elements/1.1/"
   xmlns:cc="http://creativecommons.org/ns#"
   xmlns:rdf="http://www.w3.org/1999/02/22-rdf-syntax-ns#"
   xmlns:svg="http://www.w3.org/2000/svg"
   xmlns="http://www.w3.org/2000/svg"
   id="svg845"
   viewBox="0 0 512 512"
   version="1.1"
   stroke-width="9"
   stroke-miterlimit="2"
   stroke-linejoin="round"
   stroke-linecap="round"
   fill-rule="evenodd"
   clip-rule="evenodd"
   height="512"
   width="512">
  <metadata
     id="metadata851">
    <rdf:RDF>
      <cc:Work
         rdf:about="">
        <dc:format>image/svg+xml</dc:format>
        <dc:type
           rdf:resource="http://purl.org/dc/dcmitype/StillImage" />
        <dc:title></dc:title>
      </cc:Work>
    </rdf:RDF>
  </metadata>
  <defs
     id="defs849" />
  <rect
     style="fill:#393939;fill-opacity:1"
     id="rect833"
     fill="#fff"
     ry="84"
     height="405"
     width="405"
     y="53"
     x="53" />
  <g
     style="stroke:#ffffff;stroke-opacity:1"
     id="g843"
     stroke-width="8"
     stroke-miterlimit="2"
     stroke="#3e3e3e"
     fill="none"
     transform="translate(53,54)">
    <path
       style="stroke:#ffffff;stroke-opacity:1"
       id="path835"
       d="m 89,123 v 159 c 0,19 16,34 34,34 h 159" />
    <path
       style="stroke:#ffffff;stroke-opacity:1"
       id="path837"
       d="m 156,270 h 96 c 12,0 20,-9 20,-20 v -96" />
    <path
       style="stroke:#ffffff;stroke-opacity:1"
       id="path839"
       d="M 317,282 V 123 C 317,104 301,89 283,89 H 124" />
    <path
       style="stroke:#ffffff;stroke-opacity:1"
       id="path841"
       d="m 252,133 h -96 c -12,0 -20,9 -20,20 v 96" />
  </g>
</svg>
