{
  "28d0d761cdf3f0393223b7a98502d802d3558626d5493a84ccabe72e440acd65": true,
  "097220d229fce8483470b6251eb1f32b0075edf6805374b19f1bcd6f0e5b91d5": true,
  "c369c980937290d008e4e4c01bc453c5db68239dd0294307eaf0fd92dd4173fa": true,
  "2025e73252d35fe015f5e922c8cdffb30511f37b4469c62841bdbeb701cac7c1": true,
  "9a1ac1960dfda4c1ec1e6858d0e468fed761195679380d028e111d0d4f78c437": true,
  "6a37d7f324bd8a4a3be92fd43d4cbb824f1a063113ab89dc4d2f5728411c83cd": true,
  "0ab772ea19a0e12f1c937ba8124b367847fad9175a8138d4602ac6f0f2495632": true,
  "ec559867c9aa1d769e44ea5e8a4fa671d039d6ece6905f3568cb79e4617c4c40": true,
  "93d6d0488b835e33d97bf21e577d6fbc996016ee7f16066d70f75dbf06f4f9b1": true,
  "081ab805561c3d3dc426058e486606a88334b42a022dcde9a9d22c8025354031": true,
  "1ec1edb91ae8f18414ab1a27194125d9458934572eb975d63dbcb90bc619374b": true,
  "02fdef8400111ceaeb6d518ad6c827ae98ad81d52550ccf0ecc5801fdf3d36fa": true,
  "99dc659f9081cf554980462385b0128d6a0890e54a90870bf86e57e323490292": true,
  "523973271dcea9fb9689ed9759e90c15b967b098ad0b5e1aa06a0d141a585ca9": true,
  "d2b50073a363d59bfd18bbb0538d9b7059d95d65691fc7a4c00482f11df748ba": true,
  "61707c3bd0a26f87d7aeb4c53b0df8ca8ca869b2d4f497c1aeb9a381834cf4a5": true,
  "66268ce868b66c8af875b80b19cea466932b54cd1e064f88a9a9a928e76553b4": true,
  "9c6cadf9026247ca024779939a6595f3c4cdfb82b7a0badf72123c8119c5dc3f": true
}
