<?xml version="1.0" encoding="UTF-8" standalone="no"?>
<svg
   xmlns:dc="http://purl.org/dc/elements/1.1/"
   xmlns:cc="http://creativecommons.org/ns#"
   xmlns:rdf="http://www.w3.org/1999/02/22-rdf-syntax-ns#"
   xmlns:svg="http://www.w3.org/2000/svg"
   xmlns="http://www.w3.org/2000/svg"
   id="svg961"
   version="1.1"
   width="24"
   viewBox="0 0 24 24"
   height="24">
  <metadata
     id="metadata967">
    <rdf:RDF>
      <cc:Work
         rdf:about="">
        <dc:format>image/svg+xml</dc:format>
        <dc:type
           rdf:resource="http://purl.org/dc/dcmitype/StillImage" />
        <dc:title></dc:title>
      </cc:Work>
    </rdf:RDF>
  </metadata>
  <defs
     id="defs965" />
  <g
     transform="matrix(1.2598236,0,0,1.2598236,-5.9303149,0.1530899)"
     id="g1147">
    <path
       d="M 0,0 H 24 V 24 H 0 Z"
       fill="none"
       id="path957"
       style="display:inline" />
    <path
       d="M 14.02426,13.08278 H 13.527436 L 13.351347,12.912979 C 14.106016,12.032532 14.495928,10.831352 14.282105,9.5547037 13.986527,7.806388 12.5275,6.410251 10.766607,6.1964282 8.1063999,5.8694051 5.8675495,8.1082554 6.1945726,10.768462 c 0.2138228,1.760894 1.6099598,3.21992 3.3582756,3.515499 1.2766478,0.213822 2.4778288,-0.17609 3.3582758,-0.930758 l 0.1698,0.176089 v 0.496824 l 2.672785,2.672784 c 0.257845,0.257845 0.679202,0.257845 0.937047,0 0.257845,-0.257845 0.257845,-0.679201 0,-0.937047 z m -3.773343,0 c -1.5659378,0 -2.8300078,-1.26407 -2.8300078,-2.830008 0,-1.5659372 1.26407,-2.8300073 2.8300078,-2.8300073 1.565937,0 2.830007,1.2640701 2.830007,2.8300073 0,1.565938 -1.26407,2.830008 -2.830007,2.830008 z"
       id="path959"
       style="display:inline;stroke-width:0.628891" />
  </g>
  <g
     transform="matrix(-0.35272951,0,0,0.35272951,22.364701,0.54330698)"
     id="g1143">
    <path
       d="M 0,0 H 24 V 24 H 0 Z"
       fill="none"
       id="path1129" />
    <path
       d="M 12.5,8 C 9.85,8 7.45,8.99 5.6,10.6 L 3.71,8.71 C 3.08,8.08 2,8.52 2,9.41 V 15 c 0,0.55 0.45,1 1,1 H 8.59 C 9.48,16 9.93,14.92 9.3,14.29 L 7.39,12.38 c 1.39,-1.16 3.16,-1.88 5.12,-1.88 3.16,0 5.89,1.84 7.19,4.5 0.27,0.56 0.91,0.84 1.5,0.64 0.71,-0.23 1.07,-1.04 0.75,-1.72 C 20.23,10.42 16.65,8 12.5,8 Z"
       id="path1131" />
  </g>
  <g
     style="stroke-width:8.36988;stroke-miterlimit:4;stroke-dasharray:none"
     transform="matrix(0.23895214,0,0,0.23895214,10.694845,6.1413895)"
     id="g1213">
    <path
       style="stroke-width:8.36988;stroke-miterlimit:4;stroke-dasharray:none"
       d="M 0,0 H 24 V 24 H 0 Z"
       fill="none"
       id="path1199" />
    <path
       style="stroke-width:8.36988;stroke-miterlimit:4;stroke-dasharray:none"
       d="m 18.3,5.71 c -0.39,-0.39 -1.02,-0.39 -1.41,0 L 12,10.59 7.11,5.7 C 6.72,5.31 6.09,5.31 5.7,5.7 5.31,6.09 5.31,6.72 5.7,7.11 L 10.59,12 5.7,16.89 c -0.39,0.39 -0.39,1.02 0,1.41 0.39,0.39 1.02,0.39 1.41,0 L 12,13.41 16.89,18.3 c 0.39,0.39 1.02,0.39 1.41,0 0.39,-0.39 0.39,-1.02 0,-1.41 L 13.41,12 18.3,7.11 c 0.38,-0.38 0.38,-1.02 0,-1.4 z"
       id="path1201" />
  </g>
</svg>
